[{
  "id": "d231931c-0938-4fb6-83ec-95499791fcca",
  "name": "Sharon Shaw",
  "pKey": "Christine Washington",
  "userName": "cwashington0",
  "password": "B7nDxZsxnk",
  "email": "cwashington0@cdbaby.com",
  "birthday": "7/4/2015",
  "frnds": [
    {
      "id": 1,
      "name": "Billy Rose"
    },
    {
      "id": 2,
      "name": "Marie Owens"
    },
    {
      "id": 3,
      "name": "Marie Olson"
    }
  ],
  "key": "Russell Sanchez"
}, {
  "id": "d5626e7c-5094-4354-91b9-5b47dbbbcca6",
  "name": "Bobby Duncan",
  "pKey": "Roy Ward",
  "userName": "rward1",
  "password": "LUQUyB20",
  "email": "rward1@gizmodo.com",
  "birthday": "3/14/2012",
  "frnds": [
    {
      "id": 1,
      "name": "Daniel Moore"
    }
  ],
  "key": "Frances Patterson"
}, {
  "id": "49bf980b-cc86-4ecc-a335-5799ab7184c2",
  "name": "Lisa Riley",
  "pKey": "Deborah Brown",
  "userName": "dbrown2",
  "password": "5404ir11w",
  "email": "dbrown2@cafepress.com",
  "birthday": "1/13/1982",
  "frnds": [
    {
      "id": 1,
      "name": "Lillian Mendoza"
    },
    {
      "id": 2,
      "name": "Fred Jacobs"
    },
    {
      "id": 3,
      "name": "Jason Anderson"
    }
  ],
  "key": "Sandra Bishop"
}, {
  "id": "09fb688e-b3b5-4fdd-aefb-2e17e0474ece",
  "name": "Raymond Rivera",
  "pKey": "Christine Boyd",
  "userName": "cboyd3",
  "password": "Yu49OzsIfV",
  "email": "cboyd3@toplist.cz",
  "birthday": "10/1/1986",
  "frnds": [
    {
      "id": 1,
      "name": "Paula Daniels"
    },
    {
      "id": 2,
      "name": "Marie Greene"
    }
  ],
  "key": "Gary Wallace"
}, {
  "id": "aec2eab0-607e-481b-bed6-b1dc4c9dd5e6",
  "name": "Martin Mccoy",
  "pKey": "Joyce Willis",
  "userName": "jwillis4",
  "password": "kWHoVCFncXg",
  "email": "jwillis4@uol.com.br",
  "birthday": "8/23/1987",
  "frnds": [
    {
      "id": 1,
      "name": "Juan Harris"
    },
    {
      "id": 2,
      "name": "Donald Robertson"
    },
    {
      "id": 3,
      "name": "Beverly Perkins"
    },
    {
      "id": 4,
      "name": "Jimmy Cook"
    }
  ],
  "key": "Charles Ford"
}, {
  "id": "5750e3e0-f818-4622-b52a-7abff361b02c",
  "name": "Albert Simmons",
  "pKey": "Craig Parker",
  "userName": "cparker5",
  "password": "XT2t9NJY49j",
  "email": "cparker5@columbia.edu",
  "birthday": "10/6/2001",
  "frnds": [
    {
      "id": 1,
      "name": "Antonio Martin"
    },
    {
      "id": 2,
      "name": "Helen Stevens"
    }
  ],
  "key": "Annie James"
}, {
  "id": "77156483-981e-4510-90d5-9d479b89caef",
  "name": "Kathy White",
  "pKey": "Laura Edwards",
  "userName": "ledwards6",
  "password": "dsWAFZkS",
  "email": "ledwards6@abc.net.au",
  "birthday": "6/17/1983",
  "frnds": [
    {
      "id": 1,
      "name": "Denise Boyd"
    },
    {
      "id": 2,
      "name": "Phyllis Tucker"
    }
  ],
  "key": "Timothy Sanchez"
}, {
  "id": "c2910121-ec4c-4327-a5a8-1c5bacf71e41",
  "name": "Albert Stone",
  "pKey": "Roy Hanson",
  "userName": "rhanson7",
  "password": "vt8zBU",
  "email": "rhanson7@bbc.co.uk",
  "birthday": "3/9/2009",
  "frnds": [
    {
      "id": 1,
      "name": "Evelyn Wells"
    },
    {
      "id": 2,
      "name": "Kenneth Sanders"
    },
    {
      "id": 3,
      "name": "Nicholas Mitchell"
    },
    {
      "id": 4,
      "name": "Shawn Fernandez"
    },
    {
      "id": 5,
      "name": "Dennis Brown"
    }
  ],
  "key": "Sara Martinez"
}, {
  "id": "f6b5cb63-39e9-4433-9cdf-4f6a5691f4d9",
  "name": "Donald Parker",
  "pKey": "Judy Ryan",
  "userName": "jryan8",
  "password": "NnUa360Z",
  "email": "jryan8@google.com.au",
  "birthday": "1/4/2011",
  "frnds": [
    {
      "id": 1,
      "name": "William Henderson"
    },
    {
      "id": 2,
      "name": "Judy Burke"
    },
    {
      "id": 3,
      "name": "Rose Fields"
    },
    {
      "id": 4,
      "name": "Scott Pierce"
    },
    {
      "id": 5,
      "name": "Carl Elliott"
    }
  ],
  "key": "Donald Hicks"
}, {
  "id": "6c507b96-0ffd-4df4-ac7f-7cb36f305d91",
  "name": "Sarah Riley",
  "pKey": "Lawrence Medina",
  "userName": "lmedina9",
  "password": "oThUd4o",
  "email": "lmedina9@newsvine.com",
  "birthday": "11/8/1993",
  "frnds": [
    {
      "id": 1,
      "name": "Julia Ward"
    }
  ],
  "key": "Larry Roberts"
}, {
  "id": "f5abfef5-7220-4e28-8910-92cb68150aaf",
  "name": "Melissa Hanson",
  "pKey": "Denise Bennett",
  "userName": "dbennetta",
  "password": "xmsA0a",
  "email": "dbennetta@gizmodo.com",
  "birthday": "12/18/1996",
  "frnds": [
    {
      "id": 1,
      "name": "Carlos Cooper"
    }
  ],
  "key": "Samuel Garcia"
}, {
  "id": "be699e2c-3fa6-4d3b-bc03-c2001da876fd",
  "name": "Jesse Moreno",
  "pKey": "Chris Peters",
  "userName": "cpetersb",
  "password": "bqORQz462r",
  "email": "cpetersb@bloglovin.com",
  "birthday": "3/12/2003",
  "frnds": [
    {
      "id": 1,
      "name": "Gregory Andrews"
    }
  ],
  "key": "Harry Chavez"
}, {
  "id": "2996262b-9138-449d-970f-864c087a6022",
  "name": "Teresa Arnold",
  "pKey": "Shawn Reynolds",
  "userName": "sreynoldsc",
  "password": "aWRdTm",
  "email": "sreynoldsc@devhub.com",
  "birthday": "5/12/2012",
  "frnds": [
    {
      "id": 1,
      "name": "Walter Black"
    },
    {
      "id": 2,
      "name": "Samuel Wilson"
    },
    {
      "id": 3,
      "name": "Robert Walker"
    },
    {
      "id": 4,
      "name": "Barbara Jordan"
    },
    {
      "id": 5,
      "name": "Mildred Carter"
    }
  ],
  "key": "Pamela Mccoy"
}, {
  "id": "50a1069c-830e-4745-969e-e7a4c1890b01",
  "name": "Amanda Payne",
  "pKey": "Melissa Cox",
  "userName": "mcoxd",
  "password": "40q7xuAU2C",
  "email": "mcoxd@google.com.br",
  "birthday": "6/8/1989",
  "frnds": [
    {
      "id": 1,
      "name": "Arthur Garza"
    },
    {
      "id": 2,
      "name": "Christine Arnold"
    },
    {
      "id": 3,
      "name": "Theresa Hill"
    },
    {
      "id": 4,
      "name": "Brian Wheeler"
    }
  ],
  "key": "Linda Thomas"
}, {
  "id": "18912650-d65d-42e4-a1e0-e7824c28d609",
  "name": "Jean Tucker",
  "pKey": "Jesse Matthews",
  "userName": "jmatthewse",
  "password": "0liYMLiL1",
  "email": "jmatthewse@dedecms.com",
  "birthday": "7/5/2005",
  "frnds": [
    {
      "id": 1,
      "name": "Deborah Matthews"
    }
  ],
  "key": "Catherine Gonzales"
}, {
  "id": "ae29d403-b28a-495d-91e4-f97aa3b6f47a",
  "name": "Steven Stewart",
  "pKey": "Sean Sanchez",
  "userName": "ssanchezf",
  "password": "XrjXGUk3eSw",
  "email": "ssanchezf@tripod.com",
  "birthday": "6/22/1991",
  "frnds": [
    {
      "id": 1,
      "name": "Arthur Wallace"
    },
    {
      "id": 2,
      "name": "Carl Rogers"
    },
    {
      "id": 3,
      "name": "Diana Mcdonald"
    }
  ],
  "key": "Robin Olson"
}, {
  "id": "c2308ecc-0f90-470f-9d60-d2ebb30a1ae4",
  "name": "Juan Dixon",
  "pKey": "Thomas Alexander",
  "userName": "talexanderg",
  "password": "nWImI9NgwUD",
  "email": "talexanderg@printfriendly.com",
  "birthday": "5/19/2004",
  "frnds": [
    {
      "id": 1,
      "name": "Sharon Duncan"
    },
    {
      "id": 2,
      "name": "Terry Allen"
    },
    {
      "id": 3,
      "name": "Terry Ward"
    },
    {
      "id": 4,
      "name": "Diana Mitchell"
    },
    {
      "id": 5,
      "name": "Christina Johnston"
    }
  ],
  "key": "Patricia Oliver"
}, {
  "id": "049a3ca5-5f23-454b-a62f-681ddc3e76ab",
  "name": "Clarence Myers",
  "pKey": "Juan Price",
  "userName": "jpriceh",
  "password": "arluOdYCn",
  "email": "jpriceh@howstuffworks.com",
  "birthday": "5/26/2013",
  "frnds": [
    {
      "id": 1,
      "name": "Sean Banks"
    }
  ],
  "key": "Catherine Payne"
}, {
  "id": "32f29f5f-665f-45df-963a-97d7ec87c467",
  "name": "Jonathan Gordon",
  "pKey": "Lawrence Ward",
  "userName": "lwardi",
  "password": "8f5HT0rIOU",
  "email": "lwardi@moonfruit.com",
  "birthday": "11/17/1995",
  "frnds": [
    {
      "id": 1,
      "name": "Patricia Ferguson"
    },
    {
      "id": 2,
      "name": "Lillian Johnson"
    }
  ],
  "key": "Paul Franklin"
}, {
  "id": "b8afc5ce-e9c2-4db2-8f4a-27d87700ad4d",
  "name": "George Mitchell",
  "pKey": "Jesse Young",
  "userName": "jyoungj",
  "password": "w2zuh9lh6gW",
  "email": "jyoungj@slideshare.net",
  "birthday": "9/6/2005",
  "frnds": [
    {
      "id": 1,
      "name": "Sean Young"
    },
    {
      "id": 2,
      "name": "Gloria Greene"
    },
    {
      "id": 3,
      "name": "Donald Jordan"
    },
    {
      "id": 4,
      "name": "Edward Robinson"
    },
    {
      "id": 5,
      "name": "Dennis Chapman"
    }
  ],
  "key": "Diana Ramos"
}]